C:\Users\Wluijk\Documents\Framework\SeleniumFrameworkMaven\src\main\java\nl\kza\swat\ui\FirefoxBrowser.java
C:\Users\Wluijk\Documents\Framework\SeleniumFrameworkMaven\src\main\java\nl\kza\swat\models\User.java
C:\Users\Wluijk\Documents\Framework\SeleniumFrameworkMaven\src\main\java\nl\kza\swat\pages\StartPaginaVoorLogin.java
C:\Users\Wluijk\Documents\Framework\SeleniumFrameworkMaven\src\main\java\nl\kza\swat\util\YamlLoader.java
C:\Users\Wluijk\Documents\Framework\SeleniumFrameworkMaven\src\main\java\nl\kza\swat\models\Messages.java
C:\Users\Wluijk\Documents\Framework\SeleniumFrameworkMaven\src\main\java\nl\kza\swat\pages\CollegaOverzichtPagina.java
C:\Users\Wluijk\Documents\Framework\SeleniumFrameworkMaven\src\main\java\nl\kza\swat\pages\ContactPagina.java
C:\Users\Wluijk\Documents\Framework\SeleniumFrameworkMaven\src\main\java\nl\kza\swat\pages\StartPaginaNaLogin.java
C:\Users\Wluijk\Documents\Framework\SeleniumFrameworkMaven\src\main\java\nl\kza\swat\ui\RemoteBrowser.java
C:\Users\Wluijk\Documents\Framework\SeleniumFrameworkMaven\src\main\java\nl\kza\swat\util\TestConfig.java
C:\Users\Wluijk\Documents\Framework\SeleniumFrameworkMaven\src\main\java\nl\kza\swat\basepages\Base.java
C:\Users\Wluijk\Documents\Framework\SeleniumFrameworkMaven\src\main\java\nl\kza\swat\pages\AanmeldPagina.java
C:\Users\Wluijk\Documents\Framework\SeleniumFrameworkMaven\src\main\java\nl\kza\swat\pages\InlogPagina.java
C:\Users\Wluijk\Documents\Framework\SeleniumFrameworkMaven\src\main\java\nl\kza\swat\pages\KlantOverzichtPagina.java
C:\Users\Wluijk\Documents\Framework\SeleniumFrameworkMaven\src\main\java\nl\kza\swat\pages\HomePagina.java
C:\Users\Wluijk\Documents\Framework\SeleniumFrameworkMaven\src\main\java\nl\kza\swat\pages\KlantDetailPagina.java
C:\Users\Wluijk\Documents\Framework\SeleniumFrameworkMaven\src\main\java\nl\kza\swat\models\Customer.java
C:\Users\Wluijk\Documents\Framework\SeleniumFrameworkMaven\src\main\java\nl\kza\swat\ui\SharedDriver.java
C:\Users\Wluijk\Documents\Framework\SeleniumFrameworkMaven\src\main\java\nl\kza\swat\models\AdminUser.java
C:\Users\Wluijk\Documents\Framework\SeleniumFrameworkMaven\src\main\java\nl\kza\swat\ui\BrowserFactory.java
C:\Users\Wluijk\Documents\Framework\SeleniumFrameworkMaven\src\main\java\nl\kza\swat\basepages\HeaderFooter.java
C:\Users\Wluijk\Documents\Framework\SeleniumFrameworkMaven\src\main\java\nl\kza\swat\pages\CollegaDetailPagina.java
C:\Users\Wluijk\Documents\Framework\SeleniumFrameworkMaven\src\main\java\nl\kza\swat\ui\ChromeBrowser.java
C:\Users\Wluijk\Documents\Framework\SeleniumFrameworkMaven\src\main\java\nl\kza\swat\ui\IEBrowser.java
